…
## 
## Attaching package: 'dplyr'

## The following objects are masked from 'package:stats':
## 
##     filter, lag

## The following objects are masked from 'package:base':
## 
##     intersect, setdiff, setequal, union

library(ggplot2)
flights

## # A tibble: 336,776 x 19
##     year month   day dep_time sched_dep_time dep_delay arr_time
##    <int> <int> <int>    <int>          <int>     <dbl>    <int>
##  1  2013     1     1      517            515      2.00      830
##  2  2013     1     1      533            529      4.00      850
##  3  2013     1     1      542            540      2.00      923
##  4  2013     1     1      544            545     -1.00     1004
##  5  2013     1     1      554            600     -6.00      812
##  6  2013     1     1      554            558     -4.00      740
##  7  2013     1     1      555            600     -5.00      913
##  8  2013     1     1      557            600     -3.00      709
##  9  2013     1     1      557            600     -3.00      838
## 10  2013     1     1      558            600     -2.00      753
## # ... with 336,766 more rows, and 12 more variables: sched_arr_time <int>,
## #   arr_delay <dbl>, carrier <chr>, flight <int>, tailnum <chr>,
## #   origin <chr>, dest <chr>, air_time <dbl>, distance <dbl>, hour <dbl>,
## #   minute <dbl>, time_hour <dttm>
…
distinct()

mutate() and transmute()

sample_n() and sample_frac()

Filtering Rows

Filter all flights on your birthday.

#My birthday is April 4th, so I filter for that date in the flights tbl.
filter(flights, month == 4 & day == 4)

## # A tibble: 985 x 19
##     year month   day dep_time sched_dep_time dep_delay arr_time
##    <int> <int> <int>    <int>          <int>     <dbl>    <int>
##  1  2013     4     4       14           2245     89.0       124
##  2  2013     4     4      454            500    - 6.00      636
##  3  2013     4     4      511            515    - 4.00      808
##  4  2013     4     4      529            530    - 1.00      829
##  5  2013     4     4      538            540    - 2.00      847
##  6  2013     4     4      542            545    - 3.00      904
##  7  2013     4     4      544            545    - 1.00      913
##  8  2013     4     4      550            600    -10.0       900
##  9  2013     4     4      551            600    - 9.00      838
## 10  2013     4     4      552            600    - 8.00      703
## # ... with 975 more rows, and 12 more variables: sched_arr_time <int>,
## #   arr_delay <dbl>, carrier <chr>, flight <int>, tailnum <chr>,
## #   origin <chr>, dest <chr>, air_time <dbl>, distance <dbl>, hour <dbl>,
## #   minute <dbl>, time_hour <dttm>

Filter all flights in rows 567 - 589

#We don't need to use the dplyr function filter to select a set of rows.
flights[567:589, ]

## # A tibble: 23 x 19
##     year month   day dep_time sched_dep_time dep_delay arr_time
##    <int> <int> <int>    <int>          <int>     <dbl>    <int>
##  1  2013     1     1     1653           1700    - 7.00     2005
##  2  2013     1     1     1654           1644     10.0      1752
##  3  2013     1     1     1654           1700    - 6.00     2020
##  4  2013     1     1     1655           1621     34.0      1804
##  5  2013     1     1     1655           1700    - 5.00     1953
##  6  2013     1     1     1655           1700    - 5.00     2027
##  7  2013     1     1     1655           1655      0        2025
##  8  2013     1     1     1656           1700    - 4.00     1941
##  9  2013     1     1     1657           1650      7.00     1921
## 10  2013     1     1     1657           1630     27.0      1948
## # ... with 13 more rows, and 12 more variables: sched_arr_time <int>,
## #   arr_delay <dbl>, carrier <chr>, flight <int>, tailnum <chr>,
## #   origin <chr>, dest <chr>, air_time <dbl>, distance <dbl>, hour <dbl>,
## #   minute <dbl>, time_hour <dttm>

Arranging Rows

Use arrange() to order the data by year, month and day

#This uses the dplyr function arrange to sort the data by year, month and day.
arrange(flights, year, month, day)

## # A tibble: 336,776 x 19
##     year month   day dep_time sched_dep_time dep_delay arr_time
##    <int> <int> <int>    <int>          <int>     <dbl>    <int>
##  1  2013     1     1      517            515      2.00      830
##  2  2013     1     1      533            529      4.00      850
##  3  2013     1     1      542            540      2.00      923
##  4  2013     1     1      544            545     -1.00     1004
##  5  2013     1     1      554            600     -6.00      812
##  6  2013     1     1      554            558     -4.00      740
##  7  2013     1     1      555            600     -5.00      913
##  8  2013     1     1      557            600     -3.00      709
##  9  2013     1     1      557            600     -3.00      838
## 10  2013     1     1      558            600     -2.00      753
## # ... with 336,766 more rows, and 12 more variables: sched_arr_time <int>,
## #   arr_delay <dbl>, carrier <chr>, flight <int>, tailnum <chr>,
## #   origin <chr>, dest <chr>, air_time <dbl>, distance <dbl>, hour <dbl>,
## #   minute <dbl>, time_hour <dttm>

Use desc() to arrange flights by arrival delay.

#Adding desc() to the argument of arrange will sort the data in descending order (ascending is the default). The data is then sorted by arrival delay in descending order.
arrange(flights, desc(arr_delay))

## # A tibble: 336,776 x 19
##     year month   day dep_time sched_dep_time dep_delay arr_time
##    <int> <int> <int>    <int>          <int>     <dbl>    <int>
##  1  2013     1     9      641            900      1301     1242
##  2  2013     6    15     1432           1935      1137     1607
##  3  2013     1    10     1121           1635      1126     1239
##  4  2013     9    20     1139           1845      1014     1457
##  5  2013     7    22      845           1600      1005     1044
##  6  2013     4    10     1100           1900       960     1342
##  7  2013     3    17     2321            810       911      135
##  8  2013     7    22     2257            759       898      121
##  9  2013    12     5      756           1700       896     1058
## 10  2013     5     3     1133           2055       878     1250
## # ... with 336,766 more rows, and 12 more variables: sched_arr_time <int>,
## #   arr_delay <dbl>, carrier <chr>, flight <int>, tailnum <chr>,
## #   origin <chr>, dest <chr>, air_time <dbl>, distance <dbl>, hour <dbl>,
## #   minute <dbl>, time_hour <dttm>

Select

Select columns containing date information.

#This uses the dplyr function select to take out only the columns with date information (year, month, day).
select(flights, year, month, day)

## # A tibble: 336,776 x 3
##     year month   day
##    <int> <int> <int>
##  1  2013     1     1
##  2  2013     1     1
##  3  2013     1     1
##  4  2013     1     1
##  5  2013     1     1
##  6  2013     1     1
##  7  2013     1     1
##  8  2013     1     1
##  9  2013     1     1
## 10  2013     1     1
## # ... with 336,766 more rows

Select columns including only plane information.

#Again, this uses the select function to take out the columns with plane information (carrier, tailnum)
select(flights, carrier, tailnum)

## # A tibble: 336,776 x 2
##    carrier tailnum
##    <chr>   <chr>  
##  1 UA      N14228 
##  2 UA      N24211 
##  3 AA      N619AA 
##  4 B6      N804JB 
##  5 DL      N668DN 
##  6 UA      N39463 
##  7 B6      N516JB 
##  8 EV      N829AS 
##  9 B6      N593JB 
## 10 AA      N3ALAA 
## # ... with 336,766 more rows

Rename tailnum to tail_num

#The rename function can change the column named "tailnum" to "tail_num", note the new name goes first in the second argument of the function.
flights <- rename(flights, tail_num = tailnum)

Mutating Rows

Create a variable called gain which describes the difference between arrival delap and departure delay.

#The mutate function can add new columns to a table that use data from existing columns. This can be used to add a new column "gain" which is the difference of arrival delay and departure delay.
mutate(flights, gain = arr_delay - dep_delay)

## # A tibble: 336,776 x 20
##     year month   day dep_time sched_dep_time dep_delay arr_time
##    <int> <int> <int>    <int>          <int>     <dbl>    <int>
##  1  2013     1     1      517            515      2.00      830
##  2  2013     1     1      533            529      4.00      850
##  3  2013     1     1      542            540      2.00      923
##  4  2013     1     1      544            545     -1.00     1004
##  5  2013     1     1      554            600     -6.00      812
##  6  2013     1     1      554            558     -4.00      740
##  7  2013     1     1      555            600     -5.00      913
##  8  2013     1     1      557            600     -3.00      709
##  9  2013     1     1      557            600     -3.00      838
## 10  2013     1     1      558            600     -2.00      753
## # ... with 336,766 more rows, and 13 more variables: sched_arr_time <int>,
## #   arr_delay <dbl>, carrier <chr>, flight <int>, tail_num <chr>,
## #   origin <chr>, dest <chr>, air_time <dbl>, distance <dbl>, hour <dbl>,
## #   minute <dbl>, time_hour <dttm>, gain <dbl>

Create a variable called speed which is distance over time in hours.

#The mutate function is used again to add a speed variable to the tbl.
mutate(flights, speed = distance/(air_time/60))

## # A tibble: 336,776 x 20
##     year month   day dep_time sched_dep_time dep_delay arr_time
##    <int> <int> <int>    <int>          <int>     <dbl>    <int>
##  1  2013     1     1      517            515      2.00      830
##  2  2013     1     1      533            529      4.00      850
##  3  2013     1     1      542            540      2.00      923
##  4  2013     1     1      544            545     -1.00     1004
##  5  2013     1     1      554            600     -6.00      812
##  6  2013     1     1      554            558     -4.00      740
##  7  2013     1     1      555            600     -5.00      913
##  8  2013     1     1      557            600     -3.00      709
##  9  2013     1     1      557            600     -3.00      838
## 10  2013     1     1      558            600     -2.00      753
## # ... with 336,766 more rows, and 13 more variables: sched_arr_time <int>,
## #   arr_delay <dbl>, carrier <chr>, flight <int>, tail_num <chr>,
## #   origin <chr>, dest <chr>, air_time <dbl>, distance <dbl>, hour <dbl>,
## #   minute <dbl>, time_hour <dttm>, speed <dbl>
…
#Each individual plane is represented as a dot on the graph, with its average distance travelled plotted against its average delay in arrival. The size of the dot gives an idea of how many flights the plane has made, with a key to the sizes given on the graph.

Find the number of planes and the number of flights that go to each possible destination.

#First, you have to group by the destination of the flights. Then, to summarise - first the number of planes is equal to the number of distinct tail numbers that go to a particular destination, this can be obtained with the n_distinct function. Finally, the number of flights is just equal to the number of observations for each destination, which can be obtained with the n() function.
flights %>%
  group_by(dest) %>%
    summarise(num_planes = n_distinct(tail_num), num_flights = n())

## # A tibble: 105 x 3
##    dest  num_planes num_flights
##    <chr>      <int>       <int>
##  1 ABQ          108         254
##  2 ACK           58         265
##  3 ALB          172         439
##  4 ANC            6           8
##  5 ATL         1180       17215
##  6 AUS          993        2439
##  7 AVL          159         275
##  8 BDL          186         443
##  9 BGR           46         375
## 10 BHM           45         297
## # ... with 95 more rows
…
#This is the above function rewritten with piping. After each function is called, what it does will be described.
flights %>%
  
  group_by(year, month, day) %>% #This groups the flights by their date.
  
    select(arr_delay, dep_delay) %>% #The columns of arrival delay and departure delay are selected.
  
      summarise(arr = mean(arr_delay, na.rm = TRUE), dep = mean(dep_delay, na.rm = TRUE)) %>% #The average arrival delay and departure delay for each day are given by the summarise function, with NA entries removed.
  
        filter(arr > 30 | dep > 30) #Only the days where the arrival arrival delay or departure delay is greater than 30 are included.

## Adding missing grouping variables: `year`, `month`, `day`

## # A tibble: 49 x 5
## # Groups:   year, month [11]
##     year month   day   arr   dep
##    <int> <int> <int> <dbl> <dbl>
##  1  2013     1    16  34.2  24.6
##  2  2013     1    31  32.6  28.7
##  3  2013     2    11  36.3  39.1
##  4  2013     2    27  31.3  37.8
##  5  2013     3     8  85.9  83.5
##  6  2013     3    18  41.3  30.1
##  7  2013     4    10  38.4  33.0
##  8  2013     4    12  36.0  34.8
##  9  2013     4    18  36.0  34.9
## 10  2013     4    19  47.9  46.1
## # ... with 39 more rows
…
  mutate(date = as.Date(with(flights, paste(year, month, day,sep="-")), "%Y-%m-%d")) %>% #The mutate function adds a column that gives the date of each flight, using the three separate columns for year, month and day. This is not done in the original version of this function.
  
    filter(!is.na(dep_delay)) %>% #The observations where the departure delay is NA are filtered out.
      
        group_by(date, hour) %>% #Then the flights are grouped by date (which is now a column) and hour.
  
          summarise(delay = mean(dep_delay), n = n()) %>% #Then the average delay is given for each flight every hour of every day, along with the number of flights that hour. 
  
            filter(n > 10) #Finally, only the hours where there were at least 10 flights are included.

#To sum up: the function tells you, for every hour of every day recorded, the average departure delay and number of flights in that hour, as long as more than 10 flights left that hour.
hourly_delay

## # A tibble: 5,813 x 4
## # Groups:   date [365]
##    date        hour  delay     n
##    <date>     <dbl>  <dbl> <int>
##  1 2013-01-01  6.00  2.16     51
##  2 2013-01-01  7.00  3.51     49
##  3 2013-01-01  8.00  0.448    58
##  4 2013-01-01  9.00  5.34     56
##  5 2013-01-01 10.0   0.333    39
##  6 2013-01-01 11.0   3.19     37
##  7 2013-01-01 12.0   5.75     56
##  8 2013-01-01 13.0  20.4      54
##  9 2013-01-01 14.0  17.2      48
## 10 2013-01-01 15.0   7.77     66
## # ... with 5,803 more rows
…
## Joining, by = c("iyear", "Country", "Number.of.Incidents", "Number.Killed", "Number.US.Killed", "Number.Injured", "Number.US.Injured", "Percent")

## Warning: Column `Country` joining factors with different levels, coercing
## to character vector

## Warning: Column `Percent` joining character vector and factor, coercing
## into character vector

Terror_Summarised <- rename(Terror_Summarised, year = iyear)
Terror_Summarised <- subset(Terror_Summarised, select = c(1:7, 9))
Terror_Summarised <- arrange(Terror_Summarised, year)
Terror_Summarised

## # A tibble: 3,777 x 8
## # Groups:   year [47]
##     year Country         Number.of.Inciden Number.Killed Number.US.Killed
##    <dbl> <chr>                        <int>         <int>            <int>
##  1  1970 Argentina                       21             5                0
##  2  1970 Australia                        1             0                0
##  3  1970 Belgium                          1             0                0
##  4  1970 Bolivia                          1             0                0
##  5  1970 Brazil                           6             2                0
##  6  1970 Canada                           2             1                0
##  7  1970 Colombia                         1             0                0
##  8  1970 Dominican Repu                  2             1                0
##  9  1970 East Germany (                 12             0                0
## 10  1970 Egypt                            1             0                0
## # ... with 3,767 more rows, and 3 more variables: Number.Injured <int>,
## #   Number.US.Injured <int>, Percent <chr>

Get data only for the country of France. Name this data France.

#The data for France can be obtained by filtering the Terror_Summarised data for France.
France <- filter(Terror_Summarised, Country == "France")
France

## # A tibble: 45 x 8
## # Groups:   year [45]
##     year Country Number.of.Incidents Number.Killed Number.US.Killed
##    <dbl> <chr>                 <int>         <int>            <int>
##  1  1972 France                    9             1                0
##  2  1973 France                   14             5                0
##  3  1974 France                   29             3                0
##  4  1975 France                   39             3                0
##  5  1976 France                   58             7                0
##  6  1977 France                   53             3                0
##  7  1978 France                   59            21                0
##  8  1979 France                  212            11                0
##  9  1980 France                   94            20                0
## 10  1981 France                   66             8                0
## # ... with 35 more rows, and 3 more variables: Number.Injured <int>,
## #   Number.US.Injured <int>, Percent <chr>

Get data for all EU countries (as of the article publication): call this euCountries.

euCountries <- filter(Terror_Summarised, Country %in% c("Belgium", "France", "Italy", "Germany", "Netherlands", "Luxembourg", "Denmark", "Ireland", "United Kingdom", "Greece", "Portugal", "Spain"))
euCountries

## # A tibble: 416 x 8
## # Groups:   year [47]
##     year Country        Number.of.Incidents Number.Killed Number.US.Killed
##    <dbl> <chr>                        <int>         <int>            <int>
##  1  1970 Belgium                          1             0                0
##  2  1970 Greece                           3             2                0
##  3  1970 Ireland                          1             1                0
##  4  1970 Italy                            3             0                0
##  5  1970 Netherlands                      2             0                0
##  6  1970 Spain                            4             0                0
##  7  1970 United Kingdom                  12            20                0
##  8  1971 Greece                           1             0                0
##  9  1971 Ireland                          1             1                0
## 10  1971 Italy                            3             0                0
## # ... with 406 more rows, and 3 more variables: Number.Injured <int>,
## #   Number.US.Injured <int>, Percent <chr>
…
Count the number of Fatalities by Country and Year.

#The euData set already lists the fatalities by country and year.
euData <- rename(euData, fatalities = Number.Killed)
euData

## # A tibble: 273 x 3
## # Groups:   year [31]
##     year Country     fatalities
##    <dbl> <chr>            <int>
##  1  1986 Belgium              0
##  2  1986 Denmark              0
##  3  1986 France              25
##  4  1986 Greece               6
##  5  1986 Ireland              0
##  6  1986 Italy                1
##  7  1986 Luxembourg           0
##  8  1986 Netherlands          0
##  9  1986 Portugal             1
## 10  1986 Spain               57
## # ... with 263 more rows
…
